{
  "version": "1.0",
  "defaultProvider": "cdnjs",
	"libraries": [
		{
			"library": "twitter-bootstrap@4.5.2",
			"destination": "wwwroot/lib/twitter-bootstrap/",
			"files": [
				"js/bootstrap.min.js",
				"js/bootstrap.bundle.min.js",
				"css/bootstrap.min.css",
				"css/bootstrap-reboot.min.css"
			]
		},
		{
			"library": "font-awesome@5.14.0",
			"destination": "wwwroot/lib/font-awesome/",
			"files": [
				"css/all.min.css"
			]
		},
		{
			"library": "font-awesome@5.14.0",
			"destination": "wwwroot/lib/font-awesome/"
		},
		{
			"library": "snackbarjs@1.1.0",
			"destination": "Scss/snackbarjs/",
			"files": [
				"snackbar.min.css"
			]
		},
		{
			"library": "snackbarjs@1.1.0",
			"destination": "JavaScript/snackbarjs/",
			"files": [
				"snackbar.min.js"
			]
		},
		{
			"library": "popper.js@2.5.4",
			"destination": "wwwroot/lib/popper.js/",
			"files": [
				"umd/popper.min.js"
			]
		},
		{
			"library": "Swiper@6.4.5",
			"destination": "wwwroot/lib/Swiper/",
			"files": [
				"swiper-bundle.min.js",
				"swiper-bundle.min.css"
			]
		}
	]
}